/*!**********************!*\
  !*** ./src/index.js ***!
  \**********************/

/*!*******************************!*\
  !*** ./src/components/App.js ***!
  \*******************************/

/*!********************************!*\
  !*** ./src/components/Room.js ***!
  \********************************/

/*!********************************!*\
  !*** ./src/utils/csrfToken.js ***!
  \********************************/

/*!************************************!*\
  !*** ./src/components/HomePage.js ***!
  \************************************/

/*!*************************************!*\
  !*** ./node_modules/react/index.js ***!
  \*************************************/

/*!***************************************!*\
  !*** ./node_modules/isarray/index.js ***!
  \***************************************/

/*!****************************************!*\
  !*** ./node_modules/react-is/index.js ***!
  \****************************************/

/*!****************************************!*\
  !*** ./src/components/RoomJoinPage.js ***!
  \****************************************/

/*!*****************************************!*\
  !*** ./node_modules/react-dom/index.js ***!
  \*****************************************/

/*!*****************************************!*\
  !*** ./node_modules/scheduler/index.js ***!
  \*****************************************/

/*!******************************************!*\
  !*** ./node_modules/clsx/dist/clsx.m.js ***!
  \******************************************/

/*!******************************************!*\
  !*** ./node_modules/jss/dist/jss.esm.js ***!
  \******************************************/

/*!******************************************!*\
  !*** ./node_modules/prop-types/index.js ***!
  \******************************************/

/*!******************************************!*\
  !*** ./src/components/CreateRoomPage.js ***!
  \******************************************/

/*!*********************************************!*\
  !*** ./node_modules/history/esm/history.js ***!
  \*********************************************/

/*!*********************************************!*\
  !*** ./node_modules/object-assign/index.js ***!
  \*********************************************/

/*!**********************************************!*\
  !*** ./node_modules/path-to-regexp/index.js ***!
  \**********************************************/

/*!**************************************************!*\
  !*** ./node_modules/dom-helpers/esm/addClass.js ***!
  \**************************************************/

/*!**************************************************!*\
  !*** ./node_modules/dom-helpers/esm/hasClass.js ***!
  \**************************************************/

/*!***************************************************!*\
  !*** ./node_modules/is-in-browser/dist/module.js ***!
  \***************************************************/

/*!****************************************************!*\
  !*** ./node_modules/hyphenate-style-name/index.js ***!
  \****************************************************/

/*!*****************************************************!*\
  !*** ./node_modules/@material-ui/system/esm/css.js ***!
  \*****************************************************/

/*!*****************************************************!*\
  !*** ./node_modules/dom-helpers/esm/removeClass.js ***!
  \*****************************************************/

/*!*****************************************************!*\
  !*** ./node_modules/value-equal/esm/value-equal.js ***!
  \*****************************************************/

/*!******************************************************!*\
  !*** ./node_modules/@material-ui/system/esm/grid.js ***!
  \******************************************************/

/*!******************************************************!*\
  !*** ./node_modules/@material-ui/utils/esm/index.js ***!
  \******************************************************/

/*!*******************************************************!*\
  !*** ./node_modules/@material-ui/styles/esm/index.js ***!
  \*******************************************************/

/*!*******************************************************!*\
  !*** ./node_modules/@material-ui/system/esm/index.js ***!
  \*******************************************************/

/*!*******************************************************!*\
  !*** ./node_modules/@material-ui/system/esm/merge.js ***!
  \*******************************************************/

/*!*******************************************************!*\
  !*** ./node_modules/@material-ui/system/esm/style.js ***!
  \*******************************************************/

/*!*******************************************************!*\
  !*** ./node_modules/react-router/esm/react-router.js ***!
  \*******************************************************/

/*!********************************************************!*\
  !*** ./node_modules/@material-ui/system/esm/sizing.js ***!
  \********************************************************/

/*!********************************************************!*\
  !*** ./node_modules/@material-ui/utils/esm/refType.js ***!
  \********************************************************/

/*!********************************************************!*\
  !*** ./node_modules/css-vendor/dist/css-vendor.esm.js ***!
  \********************************************************/

/*!********************************************************!*\
  !*** ./node_modules/react/cjs/react.production.min.js ***!
  \********************************************************/

/*!*********************************************************!*\
  !*** ./node_modules/@material-ui/core/esm/Grid/Grid.js ***!
  \*********************************************************/

/*!*********************************************************!*\
  !*** ./node_modules/@material-ui/core/esm/Grow/Grow.js ***!
  \*********************************************************/

/*!*********************************************************!*\
  !*** ./node_modules/@material-ui/core/esm/List/List.js ***!
  \*********************************************************/

/*!*********************************************************!*\
  !*** ./node_modules/@material-ui/core/esm/Menu/Menu.js ***!
  \*********************************************************/

/*!*********************************************************!*\
  !*** ./node_modules/@material-ui/system/esm/borders.js ***!
  \*********************************************************/

/*!*********************************************************!*\
  !*** ./node_modules/@material-ui/system/esm/compose.js ***!
  \*********************************************************/

/*!*********************************************************!*\
  !*** ./node_modules/@material-ui/system/esm/display.js ***!
  \*********************************************************/

/*!*********************************************************!*\
  !*** ./node_modules/@material-ui/system/esm/flexbox.js ***!
  \*********************************************************/

/*!*********************************************************!*\
  !*** ./node_modules/@material-ui/system/esm/memoize.js ***!
  \*********************************************************/

/*!*********************************************************!*\
  !*** ./node_modules/@material-ui/system/esm/palette.js ***!
  \*********************************************************/

/*!*********************************************************!*\
  !*** ./node_modules/@material-ui/system/esm/shadows.js ***!
  \*********************************************************/

/*!*********************************************************!*\
  !*** ./node_modules/@material-ui/system/esm/spacing.js ***!
  \*********************************************************/

/*!**********************************************************!*\
  !*** ./node_modules/@material-ui/core/esm/Grow/index.js ***!
  \**********************************************************/

/*!**********************************************************!*\
  !*** ./node_modules/@material-ui/core/esm/List/index.js ***!
  \**********************************************************/

/*!**********************************************************!*\
  !*** ./node_modules/@material-ui/core/esm/colors/red.js ***!
  \**********************************************************/

/*!**********************************************************!*\
  !*** ./node_modules/@material-ui/utils/esm/deepmerge.js ***!
  \**********************************************************/

/*!**********************************************************!*\
  !*** ./node_modules/@material-ui/utils/esm/exactProp.js ***!
  \**********************************************************/

/*!**********************************************************!*\
  !*** ./node_modules/react-transition-group/esm/index.js ***!
  \**********************************************************/

/*!***********************************************************!*\
  !*** ./node_modules/@babel/runtime/helpers/esm/typeof.js ***!
  \***********************************************************/

/*!***********************************************************!*\
  !*** ./node_modules/@material-ui/core/esm/Input/Input.js ***!
  \***********************************************************/

/*!***********************************************************!*\
  !*** ./node_modules/@material-ui/core/esm/Input/index.js ***!
  \***********************************************************/

/*!***********************************************************!*\
  !*** ./node_modules/@material-ui/core/esm/Modal/Modal.js ***!
  \***********************************************************/

/*!***********************************************************!*\
  !*** ./node_modules/@material-ui/core/esm/Modal/index.js ***!
  \***********************************************************/

/*!***********************************************************!*\
  !*** ./node_modules/@material-ui/core/esm/Paper/Paper.js ***!
  \***********************************************************/

/*!***********************************************************!*\
  !*** ./node_modules/@material-ui/core/esm/Paper/index.js ***!
  \***********************************************************/

/*!***********************************************************!*\
  !*** ./node_modules/@material-ui/core/esm/Radio/Radio.js ***!
  \***********************************************************/

/*!***********************************************************!*\
  !*** ./node_modules/@material-ui/core/esm/colors/blue.js ***!
  \***********************************************************/

/*!***********************************************************!*\
  !*** ./node_modules/@material-ui/core/esm/colors/grey.js ***!
  \***********************************************************/

/*!***********************************************************!*\
  !*** ./node_modules/@material-ui/core/esm/colors/pink.js ***!
  \***********************************************************/

/*!***********************************************************!*\
  !*** ./node_modules/@material-ui/system/esm/positions.js ***!
  \***********************************************************/

/*!***********************************************************!*\
  !*** ./node_modules/react-transition-group/esm/config.js ***!
  \***********************************************************/

/*!************************************************************!*\
  !*** ./node_modules/@babel/runtime/helpers/esm/extends.js ***!
  \************************************************************/

/*!************************************************************!*\
  !*** ./node_modules/@material-ui/core/esm/Portal/index.js ***!
  \************************************************************/

/*!************************************************************!*\
  !*** ./node_modules/@material-ui/core/esm/Select/index.js ***!
  \************************************************************/

/*!************************************************************!*\
  !*** ./node_modules/@material-ui/core/esm/colors/green.js ***!
  \************************************************************/

/*!************************************************************!*\
  !*** ./node_modules/@material-ui/core/esm/styles/shape.js ***!
  \************************************************************/

/*!************************************************************!*\
  !*** ./node_modules/@material-ui/core/esm/utils/setRef.js ***!
  \************************************************************/

/*!************************************************************!*\
  !*** ./node_modules/@material-ui/system/esm/typography.js ***!
  \************************************************************/

/*!************************************************************!*\
  !*** ./node_modules/tiny-warning/dist/tiny-warning.esm.js ***!
  \************************************************************/

/*!*************************************************************!*\
  !*** ./node_modules/@material-ui/core/esm/Button/Button.js ***!
  \*************************************************************/

/*!*************************************************************!*\
  !*** ./node_modules/@material-ui/core/esm/Popover/index.js ***!
  \*************************************************************/

/*!*************************************************************!*\
  !*** ./node_modules/@material-ui/core/esm/Portal/Portal.js ***!
  \*************************************************************/

/*!*************************************************************!*\
  !*** ./node_modules/@material-ui/core/esm/Select/Select.js ***!
  \*************************************************************/

/*!*************************************************************!*\
  !*** ./node_modules/@material-ui/core/esm/SvgIcon/index.js ***!
  \*************************************************************/

/*!*************************************************************!*\
  !*** ./node_modules/@material-ui/core/esm/colors/common.js ***!
  \*************************************************************/

/*!*************************************************************!*\
  !*** ./node_modules/@material-ui/core/esm/colors/indigo.js ***!
  \*************************************************************/

/*!*************************************************************!*\
  !*** ./node_modules/@material-ui/core/esm/colors/orange.js ***!
  \*************************************************************/

/*!*************************************************************!*\
  !*** ./node_modules/@material-ui/core/esm/styles/zIndex.js ***!
  \*************************************************************/

/*!*************************************************************!*\
  !*** ./node_modules/@material-ui/system/esm/breakpoints.js ***!
  \*************************************************************/

/*!*************************************************************!*\
  !*** ./node_modules/prop-types/factoryWithThrowingShims.js ***!
  \*************************************************************/

/*!*************************************************************!*\
  !*** ./node_modules/prop-types/lib/ReactPropTypesSecret.js ***!
  \*************************************************************/

/*!**************************************************************!*\
  !*** ./node_modules/@material-ui/core/esm/MenuList/index.js ***!
  \**************************************************************/

/*!**************************************************************!*\
  !*** ./node_modules/@material-ui/core/esm/styles/shadows.js ***!
  \**************************************************************/

/*!**************************************************************!*\
  !*** ./node_modules/@material-ui/core/esm/utils/debounce.js ***!
  \**************************************************************/

/*!**************************************************************!*\
  !*** ./node_modules/@material-ui/styles/esm/styled/index.js ***!
  \**************************************************************/

/*!**************************************************************!*\
  !*** ./node_modules/react-is/cjs/react-is.production.min.js ***!
  \**************************************************************/

/*!***************************************************************!*\
  !*** ./node_modules/@material-ui/core/esm/FormGroup/index.js ***!
  \***************************************************************/

/*!***************************************************************!*\
  !*** ./node_modules/@material-ui/core/esm/FormLabel/index.js ***!
  \***************************************************************/

/*!***************************************************************!*\
  !*** ./node_modules/@material-ui/core/esm/InputBase/utils.js ***!
  \***************************************************************/

/*!***************************************************************!*\
  !*** ./node_modules/@material-ui/core/esm/Popover/Popover.js ***!
  \***************************************************************/

/*!***************************************************************!*\
  !*** ./node_modules/@material-ui/core/esm/SvgIcon/SvgIcon.js ***!
  \***************************************************************/

/*!***************************************************************!*\
  !*** ./node_modules/@material-ui/core/esm/styles/useTheme.js ***!
  \***************************************************************/

/*!***************************************************************!*\
  !*** ./node_modules/@material-ui/styles/esm/styled/styled.js ***!
  \***************************************************************/

/*!***************************************************************!*\
  !*** ./node_modules/@material-ui/utils/esm/chainPropTypes.js ***!
  \***************************************************************/

/*!***************************************************************!*\
  !*** ./node_modules/@material-ui/utils/esm/getDisplayName.js ***!
  \***************************************************************/

/*!***************************************************************!*\
  !*** ./node_modules/@material-ui/utils/esm/ponyfillGlobal.js ***!
  \***************************************************************/

/*!***************************************************************!*\
  !*** ./node_modules/react-router-dom/esm/react-router-dom.js ***!
  \***************************************************************/

/*!***************************************************************!*\
  !*** ./node_modules/react-transition-group/esm/Transition.js ***!
  \***************************************************************/

/*!***************************************************************!*\
  !*** ./node_modules/resolve-pathname/esm/resolve-pathname.js ***!
  \***************************************************************/

/*!****************************************************************!*\
  !*** ./node_modules/@babel/runtime/helpers/esm/createClass.js ***!
  \****************************************************************/

/*!****************************************************************!*\
  !*** ./node_modules/@material-ui/core/esm/ButtonBase/index.js ***!
  \****************************************************************/

/*!****************************************************************!*\
  !*** ./node_modules/@material-ui/core/esm/IconButton/index.js ***!
  \****************************************************************/

/*!****************************************************************!*\
  !*** ./node_modules/@material-ui/core/esm/InputLabel/index.js ***!
  \****************************************************************/

/*!****************************************************************!*\
  !*** ./node_modules/@material-ui/core/esm/List/ListContext.js ***!
  \****************************************************************/

/*!****************************************************************!*\
  !*** ./node_modules/@material-ui/core/esm/utils/capitalize.js ***!
  \****************************************************************/

/*!****************************************************************!*\
  !*** ./node_modules/@material-ui/core/esm/utils/useForkRef.js ***!
  \****************************************************************/

/*!****************************************************************!*\
  !*** ./node_modules/@material-ui/styles/esm/useTheme/index.js ***!
  \****************************************************************/

/*!****************************************************************!*\
  !*** ./node_modules/@material-ui/utils/esm/HTMLElementType.js ***!
  \****************************************************************/

/*!****************************************************************!*\
  !*** ./node_modules/react-dom/cjs/react-dom.production.min.js ***!
  \****************************************************************/

/*!****************************************************************!*\
  !*** ./node_modules/scheduler/cjs/scheduler.production.min.js ***!
  \****************************************************************/

/*!****************************************************************!*\
  !*** ./node_modules/tiny-invariant/dist/tiny-invariant.esm.js ***!
  \****************************************************************/

/*!*****************************************************************!*\
  !*** ./node_modules/@material-ui/core/esm/ButtonBase/Ripple.js ***!
  \*****************************************************************/

/*!*****************************************************************!*\
  !*** ./node_modules/@material-ui/core/esm/FilledInput/index.js ***!
  \*****************************************************************/

/*!*****************************************************************!*\
  !*** ./node_modules/@material-ui/core/esm/MenuList/MenuList.js ***!
  \*****************************************************************/

/*!*****************************************************************!*\
  !*** ./node_modules/@material-ui/core/esm/styles/withStyles.js ***!
  \*****************************************************************/

/*!*****************************************************************!*\
  !*** ./node_modules/@material-ui/core/esm/transitions/utils.js ***!
  \*****************************************************************/

/*!*****************************************************************!*\
  !*** ./node_modules/@material-ui/core/esm/utils/ownerWindow.js ***!
  \*****************************************************************/

/*!*****************************************************************!*\
  !*** ./node_modules/@material-ui/styles/esm/jssPreset/index.js ***!
  \*****************************************************************/

/*!*****************************************************************!*\
  !*** ./node_modules/@material-ui/styles/esm/withTheme/index.js ***!
  \*****************************************************************/

/*!******************************************************************!*\
  !*** ./node_modules/@babel/runtime/helpers/esm/inheritsLoose.js ***!
  \******************************************************************/

/*!******************************************************************!*\
  !*** ./node_modules/@babel/runtime/helpers/esm/slicedToArray.js ***!
  \******************************************************************/

/*!******************************************************************!*\
  !*** ./node_modules/@material-ui/core/esm/Modal/ModalManager.js ***!
  \******************************************************************/

/*!******************************************************************!*\
  !*** ./node_modules/@material-ui/core/esm/Select/SelectInput.js ***!
  \******************************************************************/

/*!******************************************************************!*\
  !*** ./node_modules/@material-ui/core/esm/styles/transitions.js ***!
  \******************************************************************/

/*!******************************************************************!*\
  !*** ./node_modules/@material-ui/core/esm/utils/isMuiElement.js ***!
  \******************************************************************/

/*!******************************************************************!*\
  !*** ./node_modules/@material-ui/styles/esm/makeStyles/index.js ***!
  \******************************************************************/

/*!******************************************************************!*\
  !*** ./node_modules/@material-ui/styles/esm/withStyles/index.js ***!
  \******************************************************************/

/*!******************************************************************!*\
  !*** ./node_modules/mini-create-react-context/dist/esm/index.js ***!
  \******************************************************************/

/*!******************************************************************!*\
  !*** ./node_modules/react-router/node_modules/react-is/index.js ***!
  \******************************************************************/

/*!******************************************************************!*\
  !*** ./node_modules/react-transition-group/esm/CSSTransition.js ***!
  \******************************************************************/

/*!*******************************************************************!*\
  !*** ./node_modules/@babel/runtime/helpers/esm/arrayWithHoles.js ***!
  \*******************************************************************/

/*!*******************************************************************!*\
  !*** ./node_modules/@babel/runtime/helpers/esm/classCallCheck.js ***!
  \*******************************************************************/

/*!*******************************************************************!*\
  !*** ./node_modules/@babel/runtime/helpers/esm/defineProperty.js ***!
  \*******************************************************************/

/*!*******************************************************************!*\
  !*** ./node_modules/@babel/runtime/helpers/esm/setPrototypeOf.js ***!
  \*******************************************************************/

/*!*******************************************************************!*\
  !*** ./node_modules/@material-ui/core/esm/FormGroup/FormGroup.js ***!
  \*******************************************************************/

/*!*******************************************************************!*\
  !*** ./node_modules/@material-ui/core/esm/FormLabel/FormLabel.js ***!
  \*******************************************************************/

/*!*******************************************************************!*\
  !*** ./node_modules/@material-ui/core/esm/InputBase/InputBase.js ***!
  \*******************************************************************/

/*!*******************************************************************!*\
  !*** ./node_modules/@material-ui/core/esm/OutlinedInput/index.js ***!
  \*******************************************************************/

/*!*******************************************************************!*\
  !*** ./node_modules/@material-ui/core/esm/TextField/TextField.js ***!
  \*******************************************************************/

/*!*******************************************************************!*\
  !*** ./node_modules/@material-ui/core/esm/internal/SwitchBase.js ***!
  \*******************************************************************/

/*!*******************************************************************!*\
  !*** ./node_modules/@material-ui/core/esm/styles/createMixins.js ***!
  \*******************************************************************/

/*!*******************************************************************!*\
  !*** ./node_modules/@material-ui/core/esm/styles/defaultTheme.js ***!
  \*******************************************************************/

/*!*******************************************************************!*\
  !*** ./node_modules/@material-ui/core/esm/utils/createSvgIcon.js ***!
  \*******************************************************************/

/*!*******************************************************************!*\
  !*** ./node_modules/@material-ui/core/esm/utils/ownerDocument.js ***!
  \*******************************************************************/

/*!*******************************************************************!*\
  !*** ./node_modules/@material-ui/core/esm/utils/useControlled.js ***!
  \*******************************************************************/

/*!*******************************************************************!*\
  !*** ./node_modules/@material-ui/styles/esm/useTheme/useTheme.js ***!
  \*******************************************************************/

/*!********************************************************************!*\
  !*** ./node_modules/@babel/runtime/helpers/esm/iterableToArray.js ***!
  \********************************************************************/

/*!********************************************************************!*\
  !*** ./node_modules/@babel/runtime/helpers/esm/nonIterableRest.js ***!
  \********************************************************************/

/*!********************************************************************!*\
  !*** ./node_modules/@material-ui/core/esm/Modal/SimpleBackdrop.js ***!
  \********************************************************************/

/*!********************************************************************!*\
  !*** ./node_modules/@material-ui/core/esm/styles/createPalette.js ***!
  \********************************************************************/

/*!********************************************************************!*\
  !*** ./node_modules/@material-ui/core/esm/styles/createSpacing.js ***!
  \********************************************************************/

/*!********************************************************************!*\
  !*** ./node_modules/@material-ui/core/esm/utils/unstable_useId.js ***!
  \********************************************************************/

/*!********************************************************************!*\
  !*** ./node_modules/@material-ui/styles/esm/createStyles/index.js ***!
  \********************************************************************/

/*!********************************************************************!*\
  !*** ./node_modules/@material-ui/styles/esm/mergeClasses/index.js ***!
  \********************************************************************/

/*!********************************************************************!*\
  !*** ./node_modules/@material-ui/utils/esm/elementAcceptingRef.js ***!
  \********************************************************************/

/*!********************************************************************!*\
  !*** ./node_modules/react-transition-group/esm/TransitionGroup.js ***!
  \********************************************************************/

/*!********************************************************************!*\
  !*** ./node_modules/react-transition-group/esm/utils/PropTypes.js ***!
  \********************************************************************/

/*!*********************************************************************!*\
  !*** ./node_modules/@babel/runtime/helpers/esm/arrayLikeToArray.js ***!
  \*********************************************************************/

/*!*********************************************************************!*\
  !*** ./node_modules/@material-ui/core/esm/ButtonBase/ButtonBase.js ***!
  \*********************************************************************/

/*!*********************************************************************!*\
  !*** ./node_modules/@material-ui/core/esm/IconButton/IconButton.js ***!
  \*********************************************************************/

/*!*********************************************************************!*\
  !*** ./node_modules/@material-ui/core/esm/InputLabel/InputLabel.js ***!
  \*********************************************************************/

/*!*********************************************************************!*\
  !*** ./node_modules/@material-ui/core/esm/Radio/RadioButtonIcon.js ***!
  \*********************************************************************/

/*!*********************************************************************!*\
  !*** ./node_modules/@material-ui/core/esm/RadioGroup/RadioGroup.js ***!
  \*********************************************************************/

/*!*********************************************************************!*\
  !*** ./node_modules/@material-ui/core/esm/Typography/Typography.js ***!
  \*********************************************************************/

/*!*********************************************************************!*\
  !*** ./node_modules/@material-ui/core/esm/styles/createMuiTheme.js ***!
  \*********************************************************************/

/*!*********************************************************************!*\
  !*** ./node_modules/@material-ui/styles/esm/ThemeProvider/index.js ***!
  \*********************************************************************/

/*!*********************************************************************!*\
  !*** ./node_modules/@material-ui/styles/esm/getThemeProps/index.js ***!
  \*********************************************************************/

/*!*********************************************************************!*\
  !*** ./node_modules/@material-ui/styles/esm/jssPreset/jssPreset.js ***!
  \*********************************************************************/

/*!*********************************************************************!*\
  !*** ./node_modules/@material-ui/styles/esm/withTheme/withTheme.js ***!
  \*********************************************************************/

/*!*********************************************************************!*\
  !*** ./node_modules/react-transition-group/esm/SwitchTransition.js ***!
  \*********************************************************************/

/*!**********************************************************************!*\
  !*** ./node_modules/@babel/runtime/helpers/esm/arrayWithoutHoles.js ***!
  \**********************************************************************/

/*!**********************************************************************!*\
  !*** ./node_modules/@babel/runtime/helpers/esm/nonIterableSpread.js ***!
  \**********************************************************************/

/*!**********************************************************************!*\
  !*** ./node_modules/@babel/runtime/helpers/esm/toConsumableArray.js ***!
  \**********************************************************************/

/*!**********************************************************************!*\
  !*** ./node_modules/@material-ui/core/esm/ButtonBase/TouchRipple.js ***!
  \**********************************************************************/

/*!**********************************************************************!*\
  !*** ./node_modules/@material-ui/core/esm/TextareaAutosize/index.js ***!
  \**********************************************************************/

/*!**********************************************************************!*\
  !*** ./node_modules/@material-ui/core/esm/utils/getScrollbarSize.js ***!
  \**********************************************************************/

/*!**********************************************************************!*\
  !*** ./node_modules/@material-ui/core/esm/utils/useEventCallback.js ***!
  \**********************************************************************/

/*!**********************************************************************!*\
  !*** ./node_modules/@material-ui/styles/esm/StylesProvider/index.js ***!
  \**********************************************************************/

/*!**********************************************************************!*\
  !*** ./node_modules/@material-ui/styles/esm/ThemeProvider/nested.js ***!
  \**********************************************************************/

/*!**********************************************************************!*\
  !*** ./node_modules/@material-ui/utils/esm/formatMuiErrorMessage.js ***!
  \**********************************************************************/

/*!**********************************************************************!*\
  !*** ./node_modules/jss-plugin-global/dist/jss-plugin-global.esm.js ***!
  \**********************************************************************/

/*!**********************************************************************!*\
  !*** ./node_modules/jss-plugin-nested/dist/jss-plugin-nested.esm.js ***!
  \**********************************************************************/

/*!**********************************************************************!*\
  !*** ./node_modules/react-transition-group/esm/ReplaceTransition.js ***!
  \**********************************************************************/

/*!***********************************************************************!*\
  !*** ./node_modules/@material-ui/core/esm/FilledInput/FilledInput.js ***!
  \***********************************************************************/

/*!***********************************************************************!*\
  !*** ./node_modules/@material-ui/core/esm/FormControl/FormControl.js ***!
  \***********************************************************************/

/*!***********************************************************************!*\
  !*** ./node_modules/@material-ui/core/esm/styles/colorManipulator.js ***!
  \***********************************************************************/

/*!***********************************************************************!*\
  !*** ./node_modules/@material-ui/core/esm/styles/createTypography.js ***!
  \***********************************************************************/

/*!***********************************************************************!*\
  !*** ./node_modules/@material-ui/core/esm/utils/useIsFocusVisible.js ***!
  \***********************************************************************/

/*!***********************************************************************!*\
  !*** ./node_modules/@material-ui/styles/esm/makeStyles/makeStyles.js ***!
  \***********************************************************************/

/*!***********************************************************************!*\
  !*** ./node_modules/@material-ui/styles/esm/useTheme/ThemeContext.js ***!
  \***********************************************************************/

/*!***********************************************************************!*\
  !*** ./node_modules/@material-ui/styles/esm/withStyles/withStyles.js ***!
  \***********************************************************************/

/*!***********************************************************************!*\
  !*** ./node_modules/react-transition-group/esm/utils/ChildMapping.js ***!
  \***********************************************************************/

/*!************************************************************************!*\
  !*** ./node_modules/@material-ui/core/esm/RadioGroup/useRadioGroup.js ***!
  \************************************************************************/

/*!************************************************************************!*\
  !*** ./node_modules/@material-ui/core/esm/Unstable_TrapFocus/index.js ***!
  \************************************************************************/

/*!************************************************************************!*\
  !*** ./node_modules/@material-ui/core/esm/styles/createBreakpoints.js ***!
  \************************************************************************/

/*!************************************************************************!*\
  !*** ./node_modules/@material-ui/core/esm/utils/requirePropFactory.js ***!
  \************************************************************************/

/*!************************************************************************!*\
  !*** ./node_modules/@material-ui/styles/esm/getStylesCreator/index.js ***!
  \************************************************************************/

/*!************************************************************************!*\
  !*** ./node_modules/@material-ui/utils/esm/elementTypeAcceptingRef.js ***!
  \************************************************************************/

/*!*************************************************************************!*\
  !*** ./node_modules/@babel/runtime/helpers/esm/iterableToArrayLimit.js ***!
  \*************************************************************************/

/*!*************************************************************************!*\
  !*** ./node_modules/@material-ui/core/esm/NativeSelect/NativeSelect.js ***!
  \*************************************************************************/

/*!*************************************************************************!*\
  !*** ./node_modules/@material-ui/styles/esm/ServerStyleSheets/index.js ***!
  \*************************************************************************/

/*!*************************************************************************!*\
  !*** ./node_modules/@material-ui/styles/esm/makeStyles/indexCounter.js ***!
  \*************************************************************************/

/*!**************************************************************************!*\
  !*** ./node_modules/@babel/runtime/helpers/esm/assertThisInitialized.js ***!
  \**************************************************************************/

/*!**************************************************************************!*\
  !*** ./node_modules/@material-ui/core/esm/FormControl/useFormControl.js ***!
  \**************************************************************************/

/*!**************************************************************************!*\
  !*** ./node_modules/@material-ui/styles/esm/makeStyles/multiKeyStore.js ***!
  \**************************************************************************/

/*!***************************************************************************!*\
  !*** ./node_modules/@material-ui/core/esm/OutlinedInput/OutlinedInput.js ***!
  \***************************************************************************/

/*!***************************************************************************!*\
  !*** ./node_modules/@material-ui/core/esm/utils/createChainedFunction.js ***!
  \***************************************************************************/

/*!***************************************************************************!*\
  !*** ./node_modules/@material-ui/styles/esm/createStyles/createStyles.js ***!
  \***************************************************************************/

/*!***************************************************************************!*\
  !*** ./node_modules/@material-ui/styles/esm/mergeClasses/mergeClasses.js ***!
  \***************************************************************************/

/*!***************************************************************************!*\
  !*** ./node_modules/react-transition-group/esm/TransitionGroupContext.js ***!
  \***************************************************************************/

/*!****************************************************************************!*\
  !*** ./node_modules/@babel/runtime/helpers/esm/objectWithoutProperties.js ***!
  \****************************************************************************/

/*!****************************************************************************!*\
  !*** ./node_modules/@material-ui/core/esm/FormControl/formControlState.js ***!
  \****************************************************************************/

/*!****************************************************************************!*\
  !*** ./node_modules/@material-ui/core/esm/OutlinedInput/NotchedOutline.js ***!
  \****************************************************************************/

/*!****************************************************************************!*\
  !*** ./node_modules/@material-ui/core/esm/RadioGroup/RadioGroupContext.js ***!
  \****************************************************************************/

/*!****************************************************************************!*\
  !*** ./node_modules/@material-ui/styles/esm/getStylesCreator/noopTheme.js ***!
  \****************************************************************************/

/*!*****************************************************************************!*\
  !*** ./node_modules/@material-ui/core/esm/FormHelperText/FormHelperText.js ***!
  \*****************************************************************************/

/*!*****************************************************************************!*\
  !*** ./node_modules/@material-ui/styles/esm/ThemeProvider/ThemeProvider.js ***!
  \*****************************************************************************/

/*!*****************************************************************************!*\
  !*** ./node_modules/@material-ui/styles/esm/getThemeProps/getThemeProps.js ***!
  \*****************************************************************************/

/*!*****************************************************************************!*\
  !*** ./node_modules/hoist-non-react-statics/node_modules/react-is/index.js ***!
  \*****************************************************************************/

/*!******************************************************************************!*\
  !*** ./node_modules/@material-ui/core/esm/FormControl/FormControlContext.js ***!
  \******************************************************************************/

/*!******************************************************************************!*\
  !*** ./node_modules/@material-ui/core/esm/NativeSelect/NativeSelectInput.js ***!
  \******************************************************************************/

/*!******************************************************************************!*\
  !*** ./node_modules/jss-plugin-camel-case/dist/jss-plugin-camel-case.esm.js ***!
  \******************************************************************************/

/*!******************************************************************************!*\
  !*** ./node_modules/jss-plugin-props-sort/dist/jss-plugin-props-sort.esm.js ***!
  \******************************************************************************/

/*!*******************************************************************************!*\
  !*** ./node_modules/@babel/runtime/helpers/esm/unsupportedIterableToArray.js ***!
  \*******************************************************************************/

/*!*******************************************************************************!*\
  !*** ./node_modules/@material-ui/styles/esm/StylesProvider/StylesProvider.js ***!
  \*******************************************************************************/

/*!*******************************************************************************!*\
  !*** ./node_modules/@material-ui/styles/esm/createGenerateClassName/index.js ***!
  \*******************************************************************************/

/*!********************************************************************************!*\
  !*** ./node_modules/@material-ui/core/esm/internal/svg-icons/ArrowDropDown.js ***!
  \********************************************************************************/

/*!*********************************************************************************!*\
  !*** ./node_modules/@babel/runtime/helpers/esm/objectWithoutPropertiesLoose.js ***!
  \*********************************************************************************/

/*!*********************************************************************************!*\
  !*** ./node_modules/@material-ui/core/esm/FormControlLabel/FormControlLabel.js ***!
  \*********************************************************************************/

/*!*********************************************************************************!*\
  !*** ./node_modules/@material-ui/core/esm/TextareaAutosize/TextareaAutosize.js ***!
  \*********************************************************************************/

/*!**********************************************************************************!*\
  !*** ./node_modules/hoist-non-react-statics/dist/hoist-non-react-statics.cjs.js ***!
  \**********************************************************************************/

/*!**********************************************************************************!*\
  !*** ./node_modules/jss-plugin-default-unit/dist/jss-plugin-default-unit.esm.js ***!
  \**********************************************************************************/

/*!***********************************************************************************!*\
  !*** ./node_modules/@material-ui/styles/esm/getStylesCreator/getStylesCreator.js ***!
  \***********************************************************************************/

/*!*************************************************************************************!*\
  !*** ./node_modules/@material-ui/core/esm/Unstable_TrapFocus/Unstable_TrapFocus.js ***!
  \*************************************************************************************/

/*!*************************************************************************************!*\
  !*** ./node_modules/@material-ui/core/esm/internal/svg-icons/RadioButtonChecked.js ***!
  \*************************************************************************************/

/*!*************************************************************************************!*\
  !*** ./node_modules/@material-ui/styles/esm/ServerStyleSheets/ServerStyleSheets.js ***!
  \*************************************************************************************/

/*!***************************************************************************************!*\
  !*** ./node_modules/@material-ui/core/esm/internal/svg-icons/RadioButtonUnchecked.js ***!
  \***************************************************************************************/

/*!****************************************************************************************!*\
  !*** ./node_modules/jss-plugin-vendor-prefixer/dist/jss-plugin-vendor-prefixer.esm.js ***!
  \****************************************************************************************/

/*!****************************************************************************************!*\
  !*** ./node_modules/react-router/node_modules/react-is/cjs/react-is.production.min.js ***!
  \****************************************************************************************/

/*!************************************************************************************************!*\
  !*** ./node_modules/jss-plugin-rule-value-function/dist/jss-plugin-rule-value-function.esm.js ***!
  \************************************************************************************************/

/*!*************************************************************************************************!*\
  !*** ./node_modules/@material-ui/styles/esm/createGenerateClassName/createGenerateClassName.js ***!
  \*************************************************************************************************/

/*!***************************************************************************************************!*\
  !*** ./node_modules/hoist-non-react-statics/node_modules/react-is/cjs/react-is.production.min.js ***!
  \***************************************************************************************************/
